{
		"viewBox": "0 0 15.437999725341797 21.75",
		"symbol": [
			{"path":{"d":"M708.937,1948.61l-15.422,10.92,15.359,10.86s-2.541-6.5-2.541-10.89,2.6-10.89,2.6-10.89", "transform":"translate(-693.5 -1948.63)"}}
		]
}