{
		"viewBox": "0 0 50.060001373291016 38.810001373291016",
		"symbol": [
			{"path":{"d":"M1254.39,3753.33s6.77,2.41,9.58,2.41c0,0,3.75,1.54,6.33-2.56,0,0,.87-1.28-0.31-1.9,0,0-10.73-1.28-9.91-3.29,0,0-.05-1.14,1.43-0.88,0,0,2.07-4.07,1.25-4.59,0,0-1.28-1.13-.26-1.24,0,0,3.01.42,3.98,0.67,0,0,.67-0.24.05-0.7s-1.63-1.51-1.43-1.72c0,0,.36-0.88,2-0.16,0,0,.91-0.99.45-1.51,0,0-1.38-.82-0.72-1.5,0,0,3.12-3.95,6.59,2.29,0,0,.87,1.19.97,0.05,0,0,4.24-12.22,9.82-13.2,0,0,1.78.36,2.14-.21,0,0,1.55-.62,2.06-0.1a0.817,0.817,0,0,0,1.13.31s2.19-.88,1.53.56c0,0-2.11,2.35-2.87,2.41s-0.61,1.09.05,1.2c0,0,9.19.67,9.19,7.59,0,0,.54,1.65,2.28-0.06a18.955,18.955,0,0,1,3.29-1.77s0.72-.47.61,0.62c0,0-1.89,3.31-3.83,4.24,0,0-1.17,1.49.51,1.19a10.584,10.584,0,0,0,2.41-.81s1.99-.98,1.07.77c0,0-4.19,2.76-5.11,2.76a0.8,0.8,0,0,0-.62.72s-0.56,18.86-23.96,18.86c0,0-11.72-.01-19.39-9.11C1254.7,3754.67,1253.22,3753.07,1254.39,3753.33Z", "transform":"translate(-1253.94 -3724.97)"}}
		]
}